Getting started with R
…
Task: put this into an object and see what the class of the object is

Reading in data (a better way)

Read the data into R using the read_csv() function from the readr package

library(readr)
read_csv("example_data.csv")

# A tibble: 199 x 32
   survey_id country area  ecoregion realm location site_code site_name latitude
       <dbl> <chr>   <chr> <chr>     <chr> <chr>    <chr>     <chr>        <dbl>
 1 923401390 Canada  Newf~ Northern~ Arct~ Newfoun~ NFLD2     Tappers ~     47.7
 2 923401390 Canada  Newf~ Northern~ Arct~ Newfoun~ NFLD2     Tappers ~     47.7
 3 923401390 Canada  Newf~ Northern~ Arct~ Newfoun~ NFLD2     Tappers ~     47.7
 4 923401390 Canada  Newf~ Northern~ Arct~ Newfoun~ NFLD2     Tappers ~     47.7
 5 923401390 Canada  Newf~ Northern~ Arct~ Newfoun~ NFLD2     Tappers ~     47.7
 6 923401390 Canada  Newf~ Northern~ Arct~ Newfoun~ NFLD2     Tappers ~     47.7
 7 923401389 Canada  Newf~ Northern~ Arct~ Newfoun~ NFLD12    Biscayan~     47.8
 8 923401389 Canada  Newf~ Northern~ Arct~ Newfoun~ NFLD12    Biscayan~     47.8
 9 923401389 Canada  Newf~ Northern~ Arct~ Newfoun~ NFLD12    Biscayan~     47.8
10 923401388 Canada  Newf~ Northern~ Arct~ Newfoun~ NFLD1     Middle C~     47.7
# i 189 more rows
# i 23 more variables: longitude <dbl>, survey_date <chr>, depth <dbl>,
#   geom <chr>, program <chr>, visibility <dbl>, hour <time>,
#   survey_latitude <dbl>, survey_longitude <dbl>, diver <chr>, method <dbl>,
#   block <dbl>, phylum <chr>, class <chr>, order <chr>, family <chr>,
#   recorded_species_name <chr>, species_name <chr>, taxon <chr>,
#   reporting_name <chr>, size_class <dbl>, total <dbl>, biomass <dbl>
…
