Getting started with R
…
Task: put this into an object and see what the class of the object is

Reading in data (a better way)

Read the data into R using the read_csv() function from the readr package

library(readr)
read_csv("cape_howe.csv")

# A tibble: 269,123 × 12
   survey_id species_name size_class n_500m2 survey_date site_code depth program
       <dbl> <chr>             <dbl>   <dbl> <date>      <chr>     <dbl> <chr>  
 1   2002715 Ophthalmole…       25         3 2011-04-18  JBMP-S2    10.2 RLS    
 2   2002715 Pseudolabru…        7.5       1 2011-04-18  JBMP-S2    10.2 RLS    
 3   2002715 Pempheris a…        5         2 2011-04-18  JBMP-S2    10.2 RLS    
 4   2002715 Pempheris a…        7.5      10 2011-04-18  JBMP-S2    10.2 RLS    
 5   2002715 Pempheris a…        7.5      10 2011-04-18  JBMP-S2    10.2 RLS    
 6   2002715 Trachinops …        2.5      65 2011-04-18  JBMP-S2    10.2 RLS    
 7   2002715 Trachinops …        2.5      65 2011-04-18  JBMP-S2    10.2 RLS    
 8   2002715 Trachinops …        5       110 2011-04-18  JBMP-S2    10.2 RLS    
 9   2002715 Trachinops …        5       110 2011-04-18  JBMP-S2    10.2 RLS    
10   2002715 Chromis hyp…       10        71 2011-04-18  JBMP-S2    10.2 RLS    
# ℹ 269,113 more rows
# ℹ 4 more variables: latitude <dbl>, longitude <dbl>, ecoregion <chr>,
#   method <dbl>
…
